type,value,
base_theme,2,
theme_boost_header_color,-14012878,
theme_statuses_color,-14473687,
theme_link_color,-12734743,
theme_icons_color,-4340793,
pref_color_background,-15658735,
pref_color_navigation_bar,true,
pref_color_status_bar,true,
theme_accent,-148405,
theme_text_color,-1052431,
theme_primary,-13552069,
