{
  "invidious": [
    "invidio.us","invidious.snopyta.org","invidiou.sh","yewtu.be","invidious.toot.koeln","invidious.ggc-project.de","viraltube.my"
  ],
  "nitter": [
    "nitter.net","nitter.snopyta.org","nitter.42l.fr","nitter.nixnet.services","nitter.13ad.de","tw.openalgeria.org"
  ],
  "bibliogram":[
    "bibliogram.art", "bibliogram.snopyta.org", "bibliogram.dsrev.ru"
  ]
}